digraph G {
  nodesep=0.8;
  ranksep=0.5;

  hj [label="HashJoin(a1.salary = a2.salary)"];
  a1 [label="scan(a1)"];
  a2 [label="scan(a2)"];
  hash [label="in memory Hash(a2)"];
  hj2 [label="HashJoin(a2.agent_id = lr.agent_id)"];
  hash2 [label="in memory Hash(lr)"];
  nl [label="NestedLoopsJoin(equijoin)"];
  l [label="scan(l where text is 'Korean')"];
  bhs [label="BHS(lr.lang_id = l.lang_id)"];
  bis [label="BIS(lr.lang_id = l.lang_id)"];

  hj -> a1;
  hj -> hash;
  hash -> hj2;
  hj2 -> a2;
  hj2 -> hash2;
  hash2 -> nl;
  nl -> l;
  nl -> bhs;
  bhs -> bis;
} 
